source;indicateur;sous_indicateur;famille;libelle_famille;prise_en_compte_famille_pour_secret
chargement_rpls;;nb_d_emménagements;sans famille;sans famille;
chargement_rpls;nb_total_logements_sociaux;nb_de_logements_avec_un_autre_financement_a_partir_de_1977;type_financement;Type de financement;
chargement_rpls;nb_total_logements_sociaux;nb_de_logements_avec_un_financement_anterieur_a_1977;type_financement;Type de financement;
chargement_rpls;nb_total_logements_sociaux;nb_de_logements_avec_un_financement_pla_i;type_financement;Type de financement;
chargement_rpls;nb_total_logements_sociaux;nb_de_logements_avec_un_financement_pla_ou_plus;type_financement;Type de financement;
chargement_rpls;nb_total_logements_sociaux;nb_de_logements_avec_un_financement_pls;type_financement;Type de financement;
chargement_rpls;nb_total_logements_sociaux;nb_de_logements_hlm_construits_apres_1989;annee_construction;Annee de construction;
chargement_rpls;nb_total_logements_sociaux;nb_de_logements_hlm_construits_avant_1978;annee_construction;Annee de construction;
chargement_rpls;nb_total_logements_sociaux;nb_de_logements_hlm_construits_entre_1978_et_1989;annee_construction;Annee de construction;
chargement_rpls;;nb_de_premiers_emmenagements;sans famille;sans famille;
chargement_rpls;nb_total_logements_sociaux;nb_logements_collectifs;type_construction;Type de construction;
chargement_rpls;nb_total_logements_sociaux;nb_logements_conventionnes;conventionnement;Conventionnement;
chargement_rpls;nb_total_logements_sociaux;nb_logements_de_1_piece;nb_pieces;Nombre de pièces;
chargement_rpls;nb_total_logements_sociaux;nb_logements_de_2_pieces;nb_pieces;Nombre de pièces;
chargement_rpls;nb_total_logements_sociaux;nb_logements_de_3_pieces;nb_pieces;Nombre de pièces;
chargement_rpls;nb_total_logements_sociaux;nb_logements_de_4_pieces;nb_pieces;Nombre de pièces;
chargement_rpls;nb_total_logements_sociaux;nb_logements_de_5_pieces;nb_pieces;Nombre de pièces;
chargement_rpls;nb_total_logements_sociaux;nb_logements_de_6_pieces_ou_plus;nb_pieces;Nombre de pièces;
chargement_rpls;;nb_logements_demolis;sans famille;sans famille;
chargement_rpls;nb_total_logements_sociaux;nb_logements_dpe_a;dpe_nrj;classe énergétique du DPE;
chargement_rpls;nb_total_logements_sociaux;nb_logements_dpe_b;dpe_nrj;classe énergétique du DPE;
chargement_rpls;nb_total_logements_sociaux;nb_logements_dpe_c;dpe_nrj;classe énergétique du DPE;
chargement_rpls;nb_total_logements_sociaux;nb_logements_dpe_d;dpe_nrj;classe énergétique du DPE;
chargement_rpls;nb_total_logements_sociaux;nb_logements_dpe_e;dpe_nrj;classe énergétique du DPE;
chargement_rpls;nb_total_logements_sociaux;nb_logements_dpe_f;dpe_nrj;classe énergétique du DPE;
chargement_rpls;nb_total_logements_sociaux;nb_logements_dpe_g;dpe_nrj;classe énergétique du DPE;
chargement_rpls;nb_total_logements_sociaux;nb_logements_dpe_non_realise;dpe_nrj;classe énergétique du DPE;
chargement_rpls;nb_total_logements_sociaux;nb_logements_dpe_non_renseigne;dpe_nrj;classe énergétique du DPE;
chargement_rpls;;nb_logements_en_location_depuis_un_an_ou_plus;sans famille;sans famille;
chargement_rpls;nb_total_logements_sociaux;nb_logements_individuels;type_construction;Type de construction;
chargement_rpls;;nb_logements_proposes_a_la_location;sans famille;sans famille;
chargement_rpls;;nb_logements_vacants;sans famille;sans famille;
chargement_rpls;;nb_logements_vendus;sans famille;sans famille;
chargement_rpls;;nb_total_logements_sociaux;sans famille;sans famille;
chargement_rpls;;total_surface_habitable_logements_loues_avec_contrat_de_location;sans famille;sans famille;
chargement_rpls;;total_surface_habitable_tous_logements;sans famille;sans famille;
chargement_sitadel;nb_lgt_aut_total;nb_lgt_aut_collectifs;Types_logement_aut;Types de logements autorisés;
chargement_sitadel;nb_lgt_aut_total;nb_lgt_aut_en_residence;Types_logement_aut;Types de logements autorisés;
chargement_sitadel;nb_lgt_aut_total;nb_lgt_aut_individuels;Types_logement_aut;Types de logements autorisés;
chargement_sitadel;nb_lgt_aut_individuels;nb_lgt_aut_individuels_groupes;Types_logement_ind_aut;Types de logements autorisés individuels;
chargement_sitadel;nb_lgt_aut_individuels;nb_lgt_aut_individuels_purs;Types_logement_ind_aut;Types de logements autorisés individuels;
chargement_sitadel;nb_lgt_aut_ordinaires;nb_lgt_aut_individuels_groupes;Types_logement_ord_aut;Types de logements autorisés ordinaires;
chargement_sitadel;nb_lgt_aut_ordinaires;nb_lgt_aut_individuels_purs;Types_logement_ord_aut;Types de logements autorisés ordinaires;
chargement_sitadel;nb_lgt_aut_ordinaires;nb_lgt_aut_collectifs;Types_logement_ord_aut;Types de logements autorisés ordinaires;
chargement_sitadel;;nb_lgt_aut_ordinaires;sans famille;sans famille;
chargement_sitadel;;nb_lgt_aut_total;sans famille;sans famille;
chargement_sitadel;nb_lgt_com_total;nb_lgt_com_collectifs;Types_logement_com;Types de logements commencés;
chargement_sitadel;nb_lgt_com_total;nb_lgt_com_en_residence;Types_logement_com;Types de logements commencés;
chargement_sitadel;nb_lgt_com_total;nb_lgt_com_individuels;Types_logement_com;Types de logements commencés;
chargement_sitadel;nb_lgt_com_individuels;nb_lgt_com_individuels_groupes;Types_logement_ind_com;Types de logements commencés individuels;
chargement_sitadel;nb_lgt_com_individuels;nb_lgt_com_individuels_purs;Types_logement_ind_com;Types de logements commencés individuels;
chargement_sitadel;nb_lgt_com_ordinaires;nb_lgt_com_individuels_groupes;Types_logement_ord_com;Types de logements commencés ordinaires;
chargement_sitadel;nb_lgt_com_ordinaires;nb_lgt_com_individuels_purs;Types_logement_ord_com;Types de logements commencés ordinaires;
chargement_sitadel;nb_lgt_com_ordinaires;nb_lgt_com_collectifs;Types_logement_ord_com;Types de logements commencés ordinaires;
chargement_sitadel;;nb_lgt_com_ordinaires;sans famille;sans famille;
chargement_sitadel;;nb_lgt_com_total;sans famille;sans famille;
chargement_sitadel;surface_aut_creee_totale_des_locaux;surface_aut_creee_loc_agricoles;surf_cat_locaux_aut;Surface des catégories de locaux autorisés;
chargement_sitadel;surface_aut_creee_totale_des_locaux;surface_aut_creee_loc_artisanat;surf_cat_locaux_aut;Surface des catégories de locaux autorisés;
chargement_sitadel;surface_aut_creee_totale_des_locaux;surface_aut_creee_loc_bureaux;surf_cat_locaux_aut;Surface des catégories de locaux autorisés;
chargement_sitadel;surface_aut_creee_totale_des_locaux;surface_aut_creee_loc_commerce;surf_cat_locaux_aut;Surface des catégories de locaux autorisés;
chargement_sitadel;surface_aut_creee_totale_des_locaux;surface_aut_creee_loc_entrepot;surf_cat_locaux_aut;Surface des catégories de locaux autorisés;
chargement_sitadel;surface_aut_creee_totale_des_locaux;surface_aut_creee_loc_hebergement_hotelier;surf_cat_locaux_aut;Surface des catégories de locaux autorisés;
chargement_sitadel;surface_aut_creee_totale_des_locaux;surface_aut_creee_loc_industriels;surf_cat_locaux_aut;Surface des catégories de locaux autorisés;
chargement_sitadel;surface_aut_creee_totale_des_locaux;surface_aut_creee_loc_total_service_public;surf_cat_locaux_aut;Surface des catégories de locaux autorisés;
chargement_sitadel;;surface_aut_creee_totale_des_locaux;sans famille;sans famille;
chargement_sitadel;surface_com_creee_totale_des_locaux;surface_com_creee_loc_agricoles;surf_cat_locaux_com;Surface des catégories de locaux commencés;
chargement_sitadel;surface_com_creee_totale_des_locaux;surface_com_creee_loc_artisanat;surf_cat_locaux_com;Surface des catégories de locaux commencés;
chargement_sitadel;surface_com_creee_totale_des_locaux;surface_com_creee_loc_bureaux;surf_cat_locaux_com;Surface des catégories de locaux commencés;
chargement_sitadel;surface_com_creee_totale_des_locaux;surface_com_creee_loc_commerce;surf_cat_locaux_com;Surface des catégories de locaux commencés;
chargement_sitadel;surface_com_creee_totale_des_locaux;surface_com_creee_loc_entrepot;surf_cat_locaux_com;Surface des catégories de locaux commencés;
chargement_sitadel;surface_com_creee_totale_des_locaux;surface_com_creee_loc_hebergement_hotelier;surf_cat_locaux_com;Surface des catégories de locaux commencés;
chargement_sitadel;surface_com_creee_totale_des_locaux;surface_com_creee_loc_industriels;surf_cat_locaux_com;Surface des catégories de locaux commencés;
chargement_sitadel;surface_com_creee_totale_des_locaux;surface_com_creee_loc_total_service_public;surf_cat_locaux_com;Surface des catégories de locaux commencés;
chargement_sitadel;;surface_com_creee_totale_des_locaux;sans famille;sans famille;
chargement_ecln;nb_logt_en_cours.total;nb_logt_en_cours.collectif;nb_log_encours;Logements en cours;
chargement_ecln;nb_logt_en_cours.total;nb_logt_en_cours.individuel;nb_log_encours;Logements en cours;
chargement_ecln;nb_logt_mis_en_vente.total;nb_logt_mis_en_vente.collectif;nb_log_mev;Logements mis en vente;
chargement_ecln;nb_logt_mis_en_vente.total;nb_logt_mis_en_vente.individuel;nb_log_mev;Logements mis en vente;
chargement_ecln;nb_logt_vendus.total;nb_logt_vendus.collectif;nb_log_vendus;Logements vendus;
chargement_ecln;nb_logt_vendus.total;nb_logt_vendus.individuel;nb_log_vendus;Logements vendus;
chargement_ecln;;nb_promoteurs_en_cours.collectif;sans famille;sans famille;
chargement_ecln;;nb_promoteurs_en_cours.individuel;sans famille;sans famille;
chargement_ecln;;nb_promoteurs_mev.collectif;sans famille;sans famille;
chargement_ecln;;nb_promoteurs_mev.individuel;sans famille;sans famille;
chargement_ecln;;nb_promoteurs_vendus.collectif;sans famille;sans famille;
chargement_ecln;;nb_promoteurs_vendus.individuel;sans famille;sans famille;
chargement_ecln;prix_total_des_ventes.total;prix_total_des_ventes.collectif;prix_ventes;Prix des ventes;
chargement_ecln;prix_total_des_ventes.total;prix_total_des_ventes.individuel;prix_ventes;Prix des ventes;
chargement_ecln;surface_totale_des_ventes.total;surface_totale_des_ventes.collectif;surf_ventes;Surfaces des ventes;
chargement_ecln;surface_totale_des_ventes.total;surface_totale_des_ventes.individuel;surf_ventes;Surfaces des ventes;
chargement_ecln;;nb_logt_en_cours.total;sans famille;sans famille;
chargement_ecln;;nb_logt_mis_en_vente.total;sans famille;sans famille;
chargement_ecln;;nb_logt_vendus.total;sans famille;sans famille;
chargement_ecln;;nb_promoteurs_en_cours.total;sans famille;sans famille;
chargement_ecln;;nb_promoteurs_mev.total;sans famille;sans famille;
chargement_ecln;;nb_promoteurs_vendus.total;sans famille;sans famille;
chargement_ecln;;prix_total_des_ventes.total;sans famille;sans famille;
chargement_ecln;;surface_totale_des_ventes.total;sans famille;sans famille;
chargement_ecln;nb_logt_vendus_en_invest_loc.total;nb_logt_vendus_en_invest_loc.individuel;nb_log_vendus_inv_loc;Logements vendus en investissement locatif;
chargement_ecln;nb_logt_vendus_en_invest_loc.total;nb_logt_vendus_en_invest_loc.collectif;nb_log_vendus_inv_loc;Logements vendus en investissement locatif;
chargement_ecln;;nb_logt_vendus_en_invest_loc.total;sans famille;sans famille;
chargement_observatoire_artificialisation;flux_naf_artificialisation_total;flux_naf_artificialisation_activite;flux_annuel_NAF;Flux annuel d’artificialisation des NAF;
chargement_observatoire_artificialisation;flux_naf_artificialisation_total;flux_naf_artificialisation_habitation;flux_annuel_NAF;Flux annuel d’artificialisation des NAF;
chargement_observatoire_artificialisation;flux_naf_artificialisation_total;flux_naf_artificialisation_mixte;flux_annuel_NAF;Flux annuel d’artificialisation des NAF;
chargement_ocsge;surface naturelle boisée;surface naturelle boisée;occupation_territoire;Occupation du territoire;
chargement_ocsge;surface en eau;surface en eau;occupation_territoire;Occupation du territoire;
chargement_ocsge;espace artificialisé;espace artificialisé;occupation_territoire;Occupation du territoire;
chargement_ocsge;espace agricole;espace agricole;occupation_territoire;Occupation du territoire;
chargement_ocsge;autre surface naturelle;autre surface naturelle;occupation_territoire;Occupation du territoire;
chargement_pci;surf_bati_total;surf_bati_dur;emprise_bati;Emprise du bâti;
chargement_pci;surf_bati_total;surf_bati_leger;emprise_bati;Emprise du bâti;
chargement_prod_elec_renouv;GWh_enr_elec;Energie_kWh.bio_energie;filiere;filière;
chargement_prod_elec_renouv;GWh_enr_elec;Energie_kWh.eolien;filiere;filière;
chargement_prod_elec_renouv;GWh_enr_elec;Energie_kWh.hydraulique;filiere;filière;
chargement_prod_elec_renouv;GWh_enr_elec;Energie_kWh.photovoltaïque;filiere;filière;
chargement_dph_reno_lls;gain_nrj;gain_nrj.association;typ_bailleur;type de bailleur;
chargement_dph_reno_lls;gain_nrj;gain_nrj.commune;typ_bailleur;type de bailleur;
chargement_dph_reno_lls;gain_nrj;gain_nrj.esh;typ_bailleur;type de bailleur;
chargement_dph_reno_lls;gain_nrj;gain_nrj.inconnu;typ_bailleur;type de bailleur;
chargement_dph_reno_lls;gain_nrj;gain_nrj.oph;typ_bailleur;type de bailleur;
chargement_dph_reno_lls;nb_logts;nb_logts.association;typ_bailleur;type de bailleur;
chargement_dph_reno_lls;nb_logts;nb_logts.commune;typ_bailleur;type de bailleur;
chargement_dph_reno_lls;nb_logts;nb_logts.esh;typ_bailleur;type de bailleur;
chargement_dph_reno_lls;nb_logts;nb_logts.inconnu;typ_bailleur;type de bailleur;
chargement_dph_reno_lls;nb_logts;nb_logts.oph;typ_bailleur;type de bailleur;
chargement_dph_reno_lls;nb_ope;nb_ope.association;typ_bailleur;type de bailleur;
chargement_dph_reno_lls;nb_ope;nb_ope.commune;typ_bailleur;type de bailleur;
chargement_dph_reno_lls;nb_ope;nb_ope.esh;typ_bailleur;type de bailleur;
chargement_dph_reno_lls;nb_ope;nb_ope.inconnu;typ_bailleur;type de bailleur;
chargement_dph_reno_lls;nb_ope;nb_ope.oph;typ_bailleur;type de bailleur;
chargement_dph_reno_lls;surf;surf.association;typ_bailleur;type de bailleur;
chargement_dph_reno_lls;surf;surf.commune;typ_bailleur;type de bailleur;
chargement_dph_reno_lls;surf;surf.esh;typ_bailleur;type de bailleur;
chargement_dph_reno_lls;surf;surf.inconnu;typ_bailleur;type de bailleur;
chargement_dph_reno_lls;surf;surf.oph;typ_bailleur;type de bailleur;
chargement_conso_elec.R;conso_elec_gwh;conso_elec.agriculture;secteur;secteur;
chargement_conso_elec.R;conso_elec_gwh;conso_elec.inconnu;secteur;secteur;
chargement_conso_elec.R;conso_elec_gwh;conso_elec.industrie;secteur;secteur;
chargement_conso_elec.R;conso_elec_gwh;conso_elec.residentiel;secteur;secteur;
chargement_conso_elec.R;conso_elec_gwh;conso_elec.tertiaire;secteur;secteur;
chargement_conso_gaz.R;conso_gaz_gwh;conso_gaz.agriculture;secteur;secteur;
chargement_conso_gaz.R;conso_gaz_gwh;conso_gaz.inconnu;secteur;secteur;
chargement_conso_gaz.R;conso_gaz_gwh;conso_gaz.industrie;secteur;secteur;
chargement_conso_gaz.R;conso_gaz_gwh;conso_gaz.residentiel;secteur;secteur;
chargement_conso_gaz.R;conso_gaz_gwh;conso_gaz.tertiaire;secteur;secteur;
chargement_lgt_rgp_insee;anem.rp;anem.rp.grat;stat_occup;statut d’occupation;
chargement_lgt_rgp_insee;anem.rp;anem.rp.loc;stat_occup;statut d’occupation;
chargement_lgt_rgp_insee;anem.rp;anem.rp.prop;stat_occup;statut d’occupation;
chargement_lgt_rgp_insee;log;appart;type_construction;Type de construction;
chargement_lgt_rgp_insee;log;maison;type_construction;Type de construction;
chargement_lgt_rgp_insee;log;logvac;type_lgt;type de logement;
chargement_lgt_rgp_insee;log;rsecocc;type_lgt;type de logement;
chargement_lgt_rgp_insee;log;rp;type_lgt;type de logement;
chargement_lgt_rgp_insee;rp;men.anem0002;an_amenagmt_7cl;ancienneté d’aménagement (7 classes);
chargement_lgt_rgp_insee;rp;men.anem0204;an_amenagmt_7cl;ancienneté d’aménagement (7 classes);
chargement_lgt_rgp_insee;rp;men.anem0509;an_amenagmt_7cl;ancienneté d’aménagement (7 classes);
chargement_lgt_rgp_insee;rp;men.anem1019;an_amenagmt_7cl;ancienneté d’aménagement (7 classes);
chargement_lgt_rgp_insee;rp;men.anem10p;an_amenagmt_7cl;ancienneté d’aménagement (7 classes);
chargement_lgt_rgp_insee;rp;men.anem2029;an_amenagmt_7cl;ancienneté d’aménagement (7 classes);
chargement_lgt_rgp_insee;rp;men.anem30p;an_amenagmt_7cl;ancienneté d’aménagement (7 classes);
chargement_lgt_rgp_insee;nbpi.rp;nbpi.rp.anem0002;an_amenagmt_4cl;ancienneté d’aménagement (4 classes);
chargement_lgt_rgp_insee;nbpi.rp;nbpi.rp.anem0204;an_amenagmt_4cl;ancienneté d’aménagement (4 classes);
chargement_lgt_rgp_insee;nbpi.rp;nbpi.rp.anem0509;an_amenagmt_4cl;ancienneté d’aménagement (4 classes);
chargement_lgt_rgp_insee;nbpi.rp;nbpi.rp.anem10p;an_amenagmt_4cl;ancienneté d’aménagement (4 classes);
chargement_lgt_rgp_insee;nbpi.rp;nbpi.rpappart;type_construction;Type de construction;
chargement_lgt_rgp_insee;nbpi.rp;nbpi.rpmaison;type_construction;Type de construction;
chargement_lgt_rgp_insee;nper.rp;nper.rp.anem0002;an_amenagmt_4cl;ancienneté d’aménagement (4 classes);
chargement_lgt_rgp_insee;nper.rp;nper.rp.anem0204;an_amenagmt_4cl;ancienneté d’aménagement (4 classes);
chargement_lgt_rgp_insee;nper.rp;nper.rp.anem0509;an_amenagmt_4cl;ancienneté d’aménagement (4 classes);
chargement_lgt_rgp_insee;nper.rp;nper.rp.anem10p;an_amenagmt_4cl;ancienneté d’aménagement (4 classes);
chargement_lgt_rgp_insee;nper.rp;nper.rp.grat;stat_occup;statut d’occupation;
chargement_lgt_rgp_insee;nper.rp;nper.rp.loc;stat_occup;statut d’occupation;
chargement_lgt_rgp_insee;nper.rp;nper.rp.prop;stat_occup;statut d’occupation;
chargement_lgt_rgp_insee;rp;rp.1p;nb_pieces;Nombre de pièces;
chargement_lgt_rgp_insee;rp;rp.2p;nb_pieces;Nombre de pièces;
chargement_lgt_rgp_insee;rp;rp.3p;nb_pieces;Nombre de pièces;
chargement_lgt_rgp_insee;rp;rp.4p;nb_pieces;Nombre de pièces;
chargement_lgt_rgp_insee;rp;rp.5pp;nb_pieces;Nombre de pièces;
chargement_lgt_rgp_insee;rp.achtot;rp.ach05;epoq_ach;époque d’achèvement;
chargement_lgt_rgp_insee;rp.achtot;rp.ach09;epoq_ach;époque d’achèvement;
chargement_lgt_rgp_insee;rp.achtot;rp.ach13;epoq_ach;époque d’achèvement;
chargement_lgt_rgp_insee;rp.achtot;rp.ach19;epoq_ach;époque d’achèvement;
chargement_lgt_rgp_insee;rp.achtot;rp.ach45;epoq_ach;époque d’achèvement;
chargement_lgt_rgp_insee;rp.achtot;rp.ach46;epoq_ach;époque d’achèvement;
chargement_lgt_rgp_insee;rp.achtot;rp.ach4690;epoq_ach;époque d’achèvement;
chargement_lgt_rgp_insee;rp.achtot;rp.ach70;epoq_ach;époque d’achèvement;
chargement_lgt_rgp_insee;rp.achtot;rp.ach90;epoq_ach;époque d’achèvement;
chargement_lgt_rgp_insee;rp.achtot;rp.ach9108;epoq_ach;époque d’achèvement;
chargement_lgt_rgp_insee;rp;rp.maison;type_construction;Type de construction;
chargement_lgt_rgp_insee;rp;rp.appart;type_construction;Type de construction;
chargement_lgt_rgp_insee;rp.appart;rp.appart.ach05;epoq_ach;époque d’achèvement;
chargement_lgt_rgp_insee;rp.appart;rp.appart.ach13;epoq_ach;époque d’achèvement;
chargement_lgt_rgp_insee;rp.appart;rp.appart.ach19;epoq_ach;époque d’achèvement;
chargement_lgt_rgp_insee;rp.appart;rp.appart.ach45;epoq_ach;époque d’achèvement;
chargement_lgt_rgp_insee;rp.appart;rp.appart.ach46;epoq_ach;époque d’achèvement;
chargement_lgt_rgp_insee;rp.appart;rp.appart.ach4690;epoq_ach;époque d’achèvement;
chargement_lgt_rgp_insee;rp.appart;rp.appart.ach70;epoq_ach;époque d’achèvement;
chargement_lgt_rgp_insee;rp.appart;rp.appart.ach90;epoq_ach;époque d’achèvement;
chargement_lgt_rgp_insee;rp.appart;rp.appart.ach9108;epoq_ach;époque d’achèvement;
chargement_lgt_rgp_insee;rp;rp.grat;stat_occup;statut d’occupation;
chargement_lgt_rgp_insee;rp;rp.loc;stat_occup;statut d’occupation;
chargement_lgt_rgp_insee;rp;rp.prop;stat_occup;statut d’occupation;
chargement_lgt_rgp_insee;rp.maison;rp.maison.ach05;epoq_ach;époque d’achèvement;
chargement_lgt_rgp_insee;rp.maison;rp.maison.ach13;epoq_ach;époque d’achèvement;
chargement_lgt_rgp_insee;rp.maison;rp.maison.ach19;epoq_ach;époque d’achèvement;
chargement_lgt_rgp_insee;rp.maison;rp.maison.ach45;epoq_ach;époque d’achèvement;
chargement_lgt_rgp_insee;rp.maison;rp.maison.ach46;epoq_ach;époque d’achèvement;
chargement_lgt_rgp_insee;rp.maison;rp.maison.ach4690;epoq_ach;époque d’achèvement;
chargement_lgt_rgp_insee;rp.maison;rp.maison.ach70;epoq_ach;époque d’achèvement;
chargement_lgt_rgp_insee;rp.maison;rp.maison.ach90;epoq_ach;époque d’achèvement;
chargement_lgt_rgp_insee;rp.maison;rp.maison.ach9108;epoq_ach;époque d’achèvement;
chargement_pistes_cyclables_osm;km_cyclables_tot;km_bande_cyclable;typ_amenagmt;type d’aménagement;
chargement_pistes_cyclables_osm;km_cyclables_tot;km_piste_cyclable;typ_amenagmt;type d’aménagement;
chargement_pop_rgp_insee;fem.ttage.cs0;fem.0014.cs0;age_7_cl;classe d’âge (7 classes);
chargement_pop_rgp_insee;fem.ttage.cs0;fem.1529.cs0;age_7_cl;classe d’âge (7 classes);
chargement_pop_rgp_insee;fem.ttage.cs0;fem.3044.cs0;age_7_cl;classe d’âge (7 classes);
chargement_pop_rgp_insee;fem.ttage.cs0;fem.4559.cs0;age_7_cl;classe d’âge (7 classes);
chargement_pop_rgp_insee;fem.ttage.cs0;fem.6074.cs0;age_7_cl;classe d’âge (7 classes);
chargement_pop_rgp_insee;fem.ttage.cs0;fem.7589.cs0;age_7_cl;classe d’âge (7 classes);
chargement_pop_rgp_insee;fem.ttage.cs0;fem.90p.cs0;age_7_cl;classe d’âge (7 classes);
chargement_pop_rgp_insee;fem.ttage.cs0;fem.0019.cs0;age_3_cl;classe d’âge (3 classes);
chargement_pop_rgp_insee;fem.ttage.cs0;fem.2064.cs0;age_3_cl;classe d’âge (3 classes);
chargement_pop_rgp_insee;fem.ttage.cs0;fem.65p.cs0;age_3_cl;classe d’âge (3 classes);
chargement_pop_rgp_insee;fem.15p.cs0;fem.15p.cs1;csp;catégorie socio-professionnelle;
chargement_pop_rgp_insee;fem.15p.cs0;fem.15p.cs2;csp;catégorie socio-professionnelle;
chargement_pop_rgp_insee;fem.15p.cs0;fem.15p.cs3;csp;catégorie socio-professionnelle;
chargement_pop_rgp_insee;fem.15p.cs0;fem.15p.cs4;csp;catégorie socio-professionnelle;
chargement_pop_rgp_insee;fem.15p.cs0;fem.15p.cs5;csp;catégorie socio-professionnelle;
chargement_pop_rgp_insee;fem.15p.cs0;fem.15p.cs6;csp;catégorie socio-professionnelle;
chargement_pop_rgp_insee;fem.15p.cs0;fem.15p.cs7;csp;catégorie socio-professionnelle;
chargement_pop_rgp_insee;fem.15p.cs0;fem.15p.cs8;csp;catégorie socio-professionnelle;
chargement_pop_rgp_insee;pop.ttage.cs0;fem.ttage.cs0;genre;genre;
chargement_pop_rgp_insee;pop.ttage.cs0;hom.ttage.cs0;genre;genre;
chargement_pop_rgp_insee;hom.ttage.cs0;hom.0014.cs0;age_7_cl;classe d’âge (7 classes);
chargement_pop_rgp_insee;hom.ttage.cs0;hom.1529.cs0;age_7_cl;classe d’âge (7 classes);
chargement_pop_rgp_insee;hom.ttage.cs0;hom.3044.cs0;age_7_cl;classe d’âge (7 classes);
chargement_pop_rgp_insee;hom.ttage.cs0;hom.4559.cs0;age_7_cl;classe d’âge (7 classes);
chargement_pop_rgp_insee;hom.ttage.cs0;hom.6074.cs0;age_7_cl;classe d’âge (7 classes);
chargement_pop_rgp_insee;hom.ttage.cs0;hom.7589.cs0;age_7_cl;classe d’âge (7 classes);
chargement_pop_rgp_insee;hom.ttage.cs0;hom.90p.cs0;age_7_cl;classe d’âge (7 classes);
chargement_pop_rgp_insee;hom.ttage.cs0;hom.0019.cs0;age_3_cl;classe d’âge (3 classes);
chargement_pop_rgp_insee;hom.ttage.cs0;hom.2064.cs0;age_3_cl;classe d’âge (3 classes);
chargement_pop_rgp_insee;hom.ttage.cs0;hom.65p.cs0;age_3_cl;classe d’âge (3 classes);
chargement_pop_rgp_insee;hom.15p.cs0;hom.15p.cs1;csp;catégorie socio-professionnelle;
chargement_pop_rgp_insee;hom.15p.cs0;hom.15p.cs2;csp;catégorie socio-professionnelle;
chargement_pop_rgp_insee;hom.15p.cs0;hom.15p.cs3;csp;catégorie socio-professionnelle;
chargement_pop_rgp_insee;hom.15p.cs0;hom.15p.cs4;csp;catégorie socio-professionnelle;
chargement_pop_rgp_insee;hom.15p.cs0;hom.15p.cs5;csp;catégorie socio-professionnelle;
chargement_pop_rgp_insee;hom.15p.cs0;hom.15p.cs6;csp;catégorie socio-professionnelle;
chargement_pop_rgp_insee;hom.15p.cs0;hom.15p.cs7;csp;catégorie socio-professionnelle;
chargement_pop_rgp_insee;hom.15p.cs0;hom.15p.cs8;csp;catégorie socio-professionnelle;
chargement_pop_rgp_insee;pop.01p.cs0.iran;pop.01p.cs0.iran1;origine;origine;
chargement_pop_rgp_insee;pop.01p.cs0.iran;pop.01p.cs0.iran2;origine;origine;
chargement_pop_rgp_insee;pop.01p.cs0.iran;pop.01p.cs0.iran3;origine;origine;
chargement_pop_rgp_insee;pop.01p.cs0.iran;pop.01p.cs0.iran4;origine;origine;
chargement_pop_rgp_insee;pop.01p.cs0.iran;pop.01p.cs0.iran5;origine;origine;
chargement_pop_rgp_insee;pop.01p.cs0.iran;pop.01p.cs0.iran6;origine;origine;
chargement_pop_rgp_insee;pop.01p.cs0.iran;pop.01p.cs0.iran7;origine;origine;
chargement_pop_rgp_insee;pop.1524.cs0;pop.1524.cs1;csp;catégorie socio-professionnelle;
chargement_pop_rgp_insee;pop.1524.cs0;pop.1524.cs2;csp;catégorie socio-professionnelle;
chargement_pop_rgp_insee;pop.1524.cs0;pop.1524.cs3;csp;catégorie socio-professionnelle;
chargement_pop_rgp_insee;pop.1524.cs0;pop.1524.cs4;csp;catégorie socio-professionnelle;
chargement_pop_rgp_insee;pop.1524.cs0;pop.1524.cs5;csp;catégorie socio-professionnelle;
chargement_pop_rgp_insee;pop.1524.cs0;pop.1524.cs6;csp;catégorie socio-professionnelle;
chargement_pop_rgp_insee;pop.1524.cs0;pop.1524.cs7;csp;catégorie socio-professionnelle;
chargement_pop_rgp_insee;pop.1524.cs0;pop.1524.cs8;csp;catégorie socio-professionnelle;
chargement_pop_rgp_insee;pop.2554.cs0;pop.2554.cs1;csp;catégorie socio-professionnelle;
chargement_pop_rgp_insee;pop.2554.cs0;pop.2554.cs2;csp;catégorie socio-professionnelle;
chargement_pop_rgp_insee;pop.2554.cs0;pop.2554.cs3;csp;catégorie socio-professionnelle;
chargement_pop_rgp_insee;pop.2554.cs0;pop.2554.cs4;csp;catégorie socio-professionnelle;
chargement_pop_rgp_insee;pop.2554.cs0;pop.2554.cs5;csp;catégorie socio-professionnelle;
chargement_pop_rgp_insee;pop.2554.cs0;pop.2554.cs6;csp;catégorie socio-professionnelle;
chargement_pop_rgp_insee;pop.2554.cs0;pop.2554.cs7;csp;catégorie socio-professionnelle;
chargement_pop_rgp_insee;pop.2554.cs0;pop.2554.cs8;csp;catégorie socio-professionnelle;
chargement_pop_rgp_insee;pop.55p.cs0;pop.55p.cs1;csp;catégorie socio-professionnelle;
chargement_pop_rgp_insee;pop.55p.cs0;pop.55p.cs2;csp;catégorie socio-professionnelle;
chargement_pop_rgp_insee;pop.55p.cs0;pop.55p.cs3;csp;catégorie socio-professionnelle;
chargement_pop_rgp_insee;pop.55p.cs0;pop.55p.cs4;csp;catégorie socio-professionnelle;
chargement_pop_rgp_insee;pop.55p.cs0;pop.55p.cs5;csp;catégorie socio-professionnelle;
chargement_pop_rgp_insee;pop.55p.cs0;pop.55p.cs6;csp;catégorie socio-professionnelle;
chargement_pop_rgp_insee;pop.55p.cs0;pop.55p.cs7;csp;catégorie socio-professionnelle;
chargement_pop_rgp_insee;pop.55p.cs0;pop.55p.cs8;csp;catégorie socio-professionnelle;
chargement_pop_rgp_insee;pop.15p.cs0;pop.15p.cs1;csp;catégorie socio-professionnelle;
chargement_pop_rgp_insee;pop.15p.cs0;pop.15p.cs2;csp;catégorie socio-professionnelle;
chargement_pop_rgp_insee;pop.15p.cs0;pop.15p.cs3;csp;catégorie socio-professionnelle;
chargement_pop_rgp_insee;pop.15p.cs0;pop.15p.cs4;csp;catégorie socio-professionnelle;
chargement_pop_rgp_insee;pop.15p.cs0;pop.15p.cs5;csp;catégorie socio-professionnelle;
chargement_pop_rgp_insee;pop.15p.cs0;pop.15p.cs6;csp;catégorie socio-professionnelle;
chargement_pop_rgp_insee;pop.15p.cs0;pop.15p.cs7;csp;catégorie socio-professionnelle;
chargement_pop_rgp_insee;pop.15p.cs0;pop.15p.cs8;csp;catégorie socio-professionnelle;
chargement_pop_rgp_insee;pop.15p.cs1;pop.1524.cs1;age_3_cl;classe d’âge (3 classes);
chargement_pop_rgp_insee;pop.15p.cs1;pop.2554.cs1;age_3_cl;classe d’âge (3 classes);
chargement_pop_rgp_insee;pop.15p.cs1;pop.55p.cs1;age_3_cl;classe d’âge (3 classes);
chargement_pop_rgp_insee;pop.15p.cs2;pop.1524.cs2;age_3_cl;classe d’âge (3 classes);
chargement_pop_rgp_insee;pop.15p.cs2;pop.2554.cs2;age_3_cl;classe d’âge (3 classes);
chargement_pop_rgp_insee;pop.15p.cs2;pop.55p.cs2;age_3_cl;classe d’âge (3 classes);
chargement_pop_rgp_insee;pop.15p.cs3;pop.1524.cs3;age_3_cl;classe d’âge (3 classes);
chargement_pop_rgp_insee;pop.15p.cs3;pop.2554.cs3;age_3_cl;classe d’âge (3 classes);
chargement_pop_rgp_insee;pop.15p.cs3;pop.55p.cs3;age_3_cl;classe d’âge (3 classes);
chargement_pop_rgp_insee;pop.15p.cs4;pop.1524.cs4;age_3_cl;classe d’âge (3 classes);
chargement_pop_rgp_insee;pop.15p.cs4;pop.2554.cs4;age_3_cl;classe d’âge (3 classes);
chargement_pop_rgp_insee;pop.15p.cs4;pop.55p.cs4;age_3_cl;classe d’âge (3 classes);
chargement_pop_rgp_insee;pop.15p.cs5;pop.1524.cs5;age_3_cl;classe d’âge (3 classes);
chargement_pop_rgp_insee;pop.15p.cs5;pop.2554.cs5;age_3_cl;classe d’âge (3 classes);
chargement_pop_rgp_insee;pop.15p.cs5;pop.55p.cs5;age_3_cl;classe d’âge (3 classes);
chargement_pop_rgp_insee;pop.15p.cs6;pop.1524.cs6;age_3_cl;classe d’âge (3 classes);
chargement_pop_rgp_insee;pop.15p.cs6;pop.2554.cs6;age_3_cl;classe d’âge (3 classes);
chargement_pop_rgp_insee;pop.15p.cs6;pop.55p.cs6;age_3_cl;classe d’âge (3 classes);
chargement_pop_rgp_insee;pop.15p.cs7;pop.1524.cs7;age_3_cl;classe d’âge (3 classes);
chargement_pop_rgp_insee;pop.15p.cs7;pop.2554.cs7;age_3_cl;classe d’âge (3 classes);
chargement_pop_rgp_insee;pop.15p.cs7;pop.55p.cs7;age_3_cl;classe d’âge (3 classes);
chargement_pop_rgp_insee;pop.15p.cs8;pop.1524.cs8;age_3_cl;classe d’âge (3 classes);
chargement_pop_rgp_insee;pop.15p.cs8;pop.2554.cs8;age_3_cl;classe d’âge (3 classes);
chargement_pop_rgp_insee;pop.15p.cs8;pop.55p.cs8;age_3_cl;classe d’âge (3 classes);
chargement_pop_rgp_insee;pop.ttage.cs0;pop.0014.cs0;age_7_cl;classe d’âge (7 classes);
chargement_pop_rgp_insee;pop.ttage.cs0;pop.1529.cs0;age_7_cl;classe d’âge (7 classes);
chargement_pop_rgp_insee;pop.ttage.cs0;pop.3044.cs0;age_7_cl;classe d’âge (7 classes);
chargement_pop_rgp_insee;pop.ttage.cs0;pop.4559.cs0;age_7_cl;classe d’âge (7 classes);
chargement_pop_rgp_insee;pop.ttage.cs0;pop.6074.cs0;age_7_cl;classe d’âge (7 classes);
chargement_pop_rgp_insee;pop.ttage.cs0;pop.7589.cs0;age_7_cl;classe d’âge (7 classes);
chargement_pop_rgp_insee;pop.ttage.cs0;pop.90p.cs0;age_7_cl;classe d’âge (7 classes);
chargement_pop_rgp_insee;pop.0014.cs0;hom.0014.cs0;genre;genre;
chargement_pop_rgp_insee;pop.0014.cs0;fem.0014.cs0;genre;genre;
chargement_pop_rgp_insee;pop.1529.cs0;hom.1529.cs0;genre;genre;
chargement_pop_rgp_insee;pop.1529.cs0;fem.1529.cs0;genre;genre;
chargement_pop_rgp_insee;pop.3044.cs0;hom.3044.cs0;genre;genre;
chargement_pop_rgp_insee;pop.3044.cs0;fem.3044.cs0;genre;genre;
chargement_pop_rgp_insee;pop.4559.cs0;hom.4559.cs0;genre;genre;
chargement_pop_rgp_insee;pop.4559.cs0;fem.4559.cs0;genre;genre;
chargement_pop_rgp_insee;pop.6074.cs0;hom.6074.cs0;genre;genre;
chargement_pop_rgp_insee;pop.6074.cs0;fem.6074.cs0;genre;genre;
chargement_pop_rgp_insee;pop.7589.cs0;hom.7589.cs0;genre;genre;
chargement_pop_rgp_insee;pop.7589.cs0;fem.7589.cs0;genre;genre;
chargement_pop_rgp_insee;pop.90p.cs0;hom.90p.cs0;genre;genre;
chargement_pop_rgp_insee;pop.90p.cs0;fem.90p.cs0;genre;genre;
chargement_pop_rgp_insee;pop.15p.cs1;hom.15p.cs1;genre;genre;
chargement_pop_rgp_insee;pop.15p.cs2;hom.15p.cs2;genre;genre;
chargement_pop_rgp_insee;pop.15p.cs3;hom.15p.cs3;genre;genre;
chargement_pop_rgp_insee;pop.15p.cs4;hom.15p.cs4;genre;genre;
chargement_pop_rgp_insee;pop.15p.cs5;hom.15p.cs5;genre;genre;
chargement_pop_rgp_insee;pop.15p.cs6;hom.15p.cs6;genre;genre;
chargement_pop_rgp_insee;pop.15p.cs7;hom.15p.cs7;genre;genre;
chargement_pop_rgp_insee;pop.15p.cs8;hom.15p.cs8;genre;genre;
chargement_pop_rgp_insee;pop.15p.cs1;fem.15p.cs1;genre;genre;
chargement_pop_rgp_insee;pop.15p.cs2;fem.15p.cs2;genre;genre;
chargement_pop_rgp_insee;pop.15p.cs3;fem.15p.cs3;genre;genre;
chargement_pop_rgp_insee;pop.15p.cs4;fem.15p.cs4;genre;genre;
chargement_pop_rgp_insee;pop.15p.cs5;fem.15p.cs5;genre;genre;
chargement_pop_rgp_insee;pop.15p.cs6;fem.15p.cs6;genre;genre;
chargement_pop_rgp_insee;pop.15p.cs7;fem.15p.cs7;genre;genre;
chargement_pop_rgp_insee;pop.15p.cs8;fem.15p.cs8;genre;genre;
chargement_pop_rgp_insee;pop.01p.cs0.iran2;pop.0114.cs0.iran2;age_4_cl;classe d’âge (4 classes);
chargement_pop_rgp_insee;pop.01p.cs0.iran2;pop.1524.cs0.iran2;age_4_cl;classe d’âge (4 classes);
chargement_pop_rgp_insee;pop.01p.cs0.iran2;pop.2554.cs0.iran2;age_4_cl;classe d’âge (4 classes);
chargement_pop_rgp_insee;pop.01p.cs0.iran2;pop.55p.cs0.iran2;age_4_cl;classe d’âge (4 classes);
chargement_pop_rgp_insee;pop.0114.cs0.iran2p;pop.0114.cs0.iran2;origine;origine;
chargement_pop_rgp_insee;pop.0114.cs0.iran2p;pop.0114.cs0.iran3p;origine;origine;
chargement_pop_rgp_insee;pop.1524.cs0.iran2p;pop.1524.cs0.iran2;origine;origine;
chargement_pop_rgp_insee;pop.1524.cs0.iran2p;pop.1524.cs0.iran3p;origine;origine;
chargement_pop_rgp_insee;pop.2554.cs0.iran2p;pop.2554.cs0.iran2;origine;origine;
chargement_pop_rgp_insee;pop.2554.cs0.iran2p;pop.2554.cs0.iran3p;origine;origine;
chargement_pop_rgp_insee;pop.55p.cs0.iran2p;pop.55p.cs0.iran2;origine;origine;
chargement_pop_rgp_insee;pop.55p.cs0.iran2p;pop.55p.cs0.iran3p;origine;origine;
chargement_prec_nrj;nb_lgt_FGH;energief;dpe_nrj;classe énergétique du DPE;
chargement_prec_nrj;nb_lgt_FGH;energieg;dpe_nrj;classe énergétique du DPE;
chargement_prec_nrj;nb_lgt_FGH;energieh;dpe_nrj;classe énergétique du DPE;
chargement_prec_nrj;nb_lgt_FGH;energiei;dpe_nrj;classe énergétique du DPE;
chargement_prec_nrj;nb_men;energiea;dpe_nrj;classe énergétique du DPE;
chargement_prec_nrj;nb_men;energieb;dpe_nrj;classe énergétique du DPE;
chargement_prec_nrj;nb_men;energiec;dpe_nrj;classe énergétique du DPE;
chargement_prec_nrj;nb_men;energied;dpe_nrj;classe énergétique du DPE;
chargement_prec_nrj;nb_men;energiee;dpe_nrj;classe énergétique du DPE;
chargement_prec_nrj;nb_men;energief;dpe_nrj;classe énergétique du DPE;
chargement_prec_nrj;nb_men;energieg;dpe_nrj;classe énergétique du DPE;
chargement_prec_nrj;nb_men;energieh;dpe_nrj;classe énergétique du DPE;
chargement_prec_nrj;nb_men;energiei;dpe_nrj;classe énergétique du DPE;
chargement_filocom;;nb_total_de_menages_fiscaux;;sans famille;0
chargement_filocom;;nb_men_fisc_avec_revenu_brut_rens;;sans famille;0
chargement_filocom;;revenu_brut_total;;sans famille;0
chargement_filocom;nb_total_de_menages_fiscaux;nb_menages_pourcent_de_revenus_plaf_hlm_inferieur_60;pourcent_revenu_menage_plaf_hlm;pourcentage du revenu des ménages par rapport au plafond hlm;1
chargement_filocom;nb_total_de_menages_fiscaux;nb_menages_pourcent_de_revenus_plaf_hlm_3_de_60_a_100_inclus;pourcent_revenu_menage_plaf_hlm;pourcentage du revenu des ménages par rapport au plafond hlm;1
chargement_filocom;nb_total_de_menages_fiscaux;nb_menages_pourcent_de_revenus_plaf_hlm_4_de_100_a_130_inclus;pourcent_revenu_menage_plaf_hlm;pourcentage du revenu des ménages par rapport au plafond hlm;1
chargement_filocom;nb_total_de_menages_fiscaux;nb_menages_pourcent_de_revenus_plaf_hlm_sup_130;pourcent_revenu_menage_plaf_hlm;pourcentage du revenu des ménages par rapport au plafond hlm;1
chargement_filocom;nb_total_de_menages_fiscaux;nb_menages_pourcent_de_revenus_plaf_hlm_non_rens_ou_sans_signification;pourcent_revenu_menage_plaf_hlm;pourcentage du revenu des ménages par rapport au plafond hlm;0
chargement_filocom;;nb_menages_imposition_foyer_fiscal_principal_2_occupant_principal_non_imposable;;sans famille;0
chargement_filocom;;nb_total_logements;;sans famille;0
chargement_filocom;nb_total_logements;nb_lgts_collectif;type_logt;type de logement;1
chargement_filocom;nb_total_logements;nb_lgts_individuel;type_logt;type de logement;1
chargement_filocom;nb_total_logements;nb_lgts_mode_occupation_residences_principales;mode_occupation;mode d’occupation;1
chargement_filocom;nb_total_logements;nb_lgts_mode_occupation_residences_secondaires;mode_occupation;mode d’occupation;1
chargement_filocom;nb_total_logements;nb_lgts_mode_occupation_logements_vacants;mode_occupation;mode d’occupation;1
chargement_filocom;nb_lgts_mode_occupation_logements_vacants;nb_lgts_logements_vacants_individuel;typ_logt_vacant;type des logements vacants;1
chargement_filocom;nb_lgts_mode_occupation_logements_vacants;nb_lgts_logements_vacants_collectif;typ_logt_vacant;type des logements vacants;1
chargement_filocom;;nb_lgts_logements_vacants_duree_vacance_plus_3_ans;;sans famille;0
chargement_filocom;;nb_lgts_logements_vacants_classement_cadastral_7_ou_8;;sans famille;0
chargement_filocom;;nb_lgts_residences_principales_classement_cadastral_7_ou_8;;sans famille;0
chargement_filocom;nb_lgts_mode_occupation_residences_principales;nb_lgts_residences_principales_collectif;typ_logt_rp;type de logement résidences principales;1
chargement_filocom;nb_lgts_mode_occupation_residences_principales;nb_lgts_residences_principales_individuel;typ_logt_rp;type de logement résidences principales;1
chargement_filocom;nb_lgts_mode_occupation_residences_principales;nb_lgts_residences_principales_non_renseigne;typ_logt_rp;type de logement résidences principales;0
chargement_filocom;nb_lgts_mode_occupation_residences_principales;nb_res_principales_statut_occupation_proprietaire_occupant;stat_occup_rp;statut d’occupation des résidences principales;1
chargement_filocom;nb_lgts_mode_occupation_residences_principales;nb_res_principales_statut_occupation_autres;stat_occup_rp;statut d’occupation des résidences principales;1
chargement_filocom;nb_lgts_mode_occupation_residences_principales;nb_res_principales_statut_occupation_locatif_collectiv_territ;stat_occup_rp;statut d’occupation des résidences principales;1
chargement_filocom;nb_lgts_mode_occupation_residences_principales;nb_res_principales_statut_occupation_locatif_hlm_sem;stat_occup_rp;statut d’occupation des résidences principales;1
chargement_filocom;nb_lgts_mode_occupation_residences_principales;nb_res_principales_statut_occupation_locatif_prive;stat_occup_rp;statut d’occupation des résidences principales;1
chargement_filocom;nb_lgts_mode_occupation_residences_principales;nb_res_principales_statut_occupation_sans_signification;stat_occup_rp;statut d’occupation des résidences principales;0
chargement_filocom;nb_total_logements;nb_lgts_proprietaire_personne_physique;type_proprietaire;type propriétaire;1
chargement_filocom;nb_total_logements;nb_lgts_proprietaire_hlm_sem;type_proprietaire;type propriétaire;1
chargement_filocom;nb_total_logements;nb_lgts_proprietaire_collectivite_ter_;type_proprietaire;type propriétaire;1
chargement_filocom;nb_total_logements;nb_lgts_proprietaire_autres_pm;type_proprietaire;type propriétaire;1
chargement_filocom;nb_lgts_mode_occupation_logements_vacants;nb_lgts_logements_vacants_proprietaire_personne_physique;type_proprietaire_lgt_vacant;type propriétaire des logements vacants;1
chargement_filocom;nb_lgts_mode_occupation_logements_vacants;nb_lgts_logements_vacants_proprietaire_hlm_sem;type_proprietaire_lgt_vacant;type propriétaire des logements vacants;1
chargement_filocom;nb_lgts_mode_occupation_logements_vacants;nb_lgts_logements_vacants_proprietaire_collectivite_ter_;type_proprietaire_lgt_vacant;type propriétaire des logements vacants;1
chargement_filocom;nb_lgts_mode_occupation_logements_vacants;nb_lgts_logements_vacants_proprietaire_autres_pm;type_proprietaire_lgt_vacant;type propriétaire des logements vacants;1
chargement_filocom;nb_total_logements;nb_lgts_construits_avant_1949;nb_lgts_par_annee_constr;nombre de logements par année de construction;1
chargement_filocom;nb_total_logements;nb_lgts_construits_de_1949_a_1974;nb_lgts_par_annee_constr;nombre de logements par année de construction;1
chargement_filocom;nb_total_logements;nb_lgts_construits_de_1975_a_1989;nb_lgts_par_annee_constr;nombre de logements par année de construction;1
chargement_filocom;nb_total_logements;nb_lgts_construits_7_de_1990_a_1999;nb_lgts_par_annee_constr;nombre de logements par année de construction;1
chargement_filocom;nb_total_logements;nb_lgts_construits_8_apres_2000;nb_lgts_par_annee_constr;nombre de logements par année de construction;1
chargement_filocom;nb_total_logements;nb_lgts_construits_9_non_renseigne;nb_lgts_par_annee_constr;nombre de logements par année de construction;0
chargement_filocom;nb_lgts_mode_occupation_residences_principales;nb_lgts_residences_principales_construits_1949;nb_rp_par_annee_constr;nombre de résidences principales par année de construction;1
chargement_filocom;nb_lgts_mode_occupation_residences_principales;nb_lgts_residences_principales_construits_de_1949_a_1974;nb_rp_par_annee_constr;nombre de résidences principales par année de construction;1
chargement_filocom;nb_lgts_mode_occupation_residences_principales;nb_lgts_residences_principales_construits_de_1975_a_1989;nb_rp_par_annee_constr;nombre de résidences principales par année de construction;1
chargement_filocom;nb_lgts_mode_occupation_residences_principales;nb_lgts_residences_principales_construits_7_de_1990_a_1999;nb_rp_par_annee_constr;nombre de résidences principales par année de construction;1
chargement_filocom;nb_lgts_mode_occupation_residences_principales;nb_lgts_residences_principales_construits_8_apres_2000;nb_rp_par_annee_constr;nombre de résidences principales par année de construction;1
chargement_filocom;nb_lgts_mode_occupation_residences_principales;nb_lgts_residences_principales_construits_9_non_renseigne;nb_rp_par_annee_constr;nombre de résidences principales par année de construction;0
chargement_filocom;nb_lgts_mode_occupation_logements_vacants;nb_lgts_logements_vacants_construits_avant_1949;nb_vacants_par_annee_constr;nombre de logements vacants par année de construction;1
chargement_filocom;nb_lgts_mode_occupation_logements_vacants;nb_lgts_logements_vacants_construits_de_1949_a_1974;nb_vacants_par_annee_constr;nombre de logements vacants par année de construction;1
chargement_filocom;nb_lgts_mode_occupation_logements_vacants;nb_lgts_logements_vacants_construits_de_1975_a_1989;nb_vacants_par_annee_constr;nombre de logements vacants par année de construction;1
chargement_filocom;nb_lgts_mode_occupation_logements_vacants;nb_lgts_logements_vacants_construits_7_de_1990_a_1999;nb_vacants_par_annee_constr;nombre de logements vacants par année de construction;1
chargement_filocom;nb_lgts_mode_occupation_logements_vacants;nb_lgts_logements_vacants_construits_8_apres_2000;nb_vacants_par_annee_constr;nombre de logements vacants par année de construction;1
chargement_filocom;nb_lgts_mode_occupation_logements_vacants;nb_lgts_logements_vacants_construits_9_non_renseigne;nb_vacants_par_annee_constr;nombre de logements vacants par année de construction;0
chargement_filocom;nb_res_principales_statut_occupation_proprietaire_occupant;nb_lgts_occupation_proprietaire_occupant_construits_avant_1948;nb_lgts_po_par_annee_constr;nombre de logements propriétaire occupant par année de construction;1
chargement_filocom;nb_res_principales_statut_occupation_proprietaire_occupant;nb_lgts_occupation_proprietaire_occupant_construits_de_1949_a_1974;nb_lgts_po_par_annee_constr;nombre de logements propriétaire occupant par année de construction;1
chargement_filocom;nb_res_principales_statut_occupation_proprietaire_occupant;nb_lgts_occupation_proprietaire_occupant_construits_de_1975_a_1989;nb_lgts_po_par_annee_constr;nombre de logements propriétaire occupant par année de construction;1
chargement_filocom;nb_res_principales_statut_occupation_proprietaire_occupant;nb_lgts_occupation_proprietaire_occupant_construits_7_de_1990_a_1999;nb_lgts_po_par_annee_constr;nombre de logements propriétaire occupant par année de construction;1
chargement_filocom;nb_res_principales_statut_occupation_proprietaire_occupant;nb_lgts_occupation_proprietaire_occupant_construits_8_apres_2000;nb_lgts_po_par_annee_constr;nombre de logements propriétaire occupant par année de construction;1
chargement_filocom;nb_res_principales_statut_occupation_proprietaire_occupant;nb_lgts_occupation_proprietaire_occupant_construits_9_non_renseigne;nb_lgts_po_par_annee_constr;nombre de logements propriétaire occupant par année de construction;0
chargement_filocom;nb_res_principales_statut_occupation_locatif_prive;nb_lgts_occupation_locatif_prive_construits_1_avant_1948;nb_lgts_loc_priv_par_annee_constr;nombre de logements locatifs privés par année de construction;1
chargement_filocom;nb_res_principales_statut_occupation_locatif_prive;nb_lgts_occupation_locatif_prive_construits_de_1949_a_1974;nb_lgts_loc_priv_par_annee_constr;nombre de logements locatifs privés par année de construction;1
chargement_filocom;nb_res_principales_statut_occupation_locatif_prive;nb_lgts_occupation_locatif_prive_construits_5_de_1975_a_1989;nb_lgts_loc_priv_par_annee_constr;nombre de logements locatifs privés par année de construction;1
chargement_filocom;nb_res_principales_statut_occupation_locatif_prive;nb_lgts_occupation_locatif_prive_construits_7_de_1990_a_1999;nb_lgts_loc_priv_par_annee_constr;nombre de logements locatifs privés par année de construction;1
chargement_filocom;nb_res_principales_statut_occupation_locatif_prive;nb_lgts_occupation_locatif_prive_construits_8_apres_2000;nb_lgts_loc_priv_par_annee_constr;nombre de logements locatifs privés par année de construction;1
chargement_filocom;nb_res_principales_statut_occupation_locatif_prive;nb_lgts_occupation_locatif_prive_construits_9_non_renseigne;nb_lgts_loc_priv_par_annee_constr;nombre de logements locatifs privés par année de construction;0
chargement_filocom;nb_lgts_mode_occupation_residences_principales;nb_res_principales_de_1_piece;nb_resid_principales;nombre de résidences principales;1
chargement_filocom;nb_lgts_mode_occupation_residences_principales;nb_res_principales_de_2_pieces;nb_resid_principales;nombre de résidences principales;1
chargement_filocom;nb_lgts_mode_occupation_residences_principales;nb_res_principales_de_3_pieces;nb_resid_principales;nombre de résidences principales;1
chargement_filocom;nb_lgts_mode_occupation_residences_principales;nb_res_principales_de_4_pieces;nb_resid_principales;nombre de résidences principales;1
chargement_filocom;nb_lgts_mode_occupation_residences_principales;nb_res_principales_de_5_pieces;nb_resid_principales;nombre de résidences principales;1
chargement_filocom;nb_lgts_mode_occupation_residences_principales;nb_res_principales_de_6_pieces_ou_plus;nb_resid_principales;nombre de résidences principales;1
chargement_filocom;nb_res_principales_statut_occupation_proprietaire_occupant;nb_lgts_occupation_proprietaire_occupant_1_piece;nb_lgts_occupation_propr_occupant_par_nb_piece;nombre de logements propriétaires occupants par nombre de pièces;1
chargement_filocom;nb_res_principales_statut_occupation_proprietaire_occupant;nb_lgts_occupation_proprietaire_occupant_2_pieces;nb_lgts_occupation_propr_occupant_par_nb_piece;nombre de logements propriétaires occupants par nombre de pièces;1
chargement_filocom;nb_res_principales_statut_occupation_proprietaire_occupant;nb_lgts_occupation_proprietaire_occupant_3_pieces;nb_lgts_occupation_propr_occupant_par_nb_piece;nombre de logements propriétaires occupants par nombre de pièces;1
chargement_filocom;nb_res_principales_statut_occupation_proprietaire_occupant;nb_lgts_occupation_proprietaire_occupant_4_pieces;nb_lgts_occupation_propr_occupant_par_nb_piece;nombre de logements propriétaires occupants par nombre de pièces;1
chargement_filocom;nb_res_principales_statut_occupation_proprietaire_occupant;nb_lgts_occupation_proprietaire_occupant_5_pieces;nb_lgts_occupation_propr_occupant_par_nb_piece;nombre de logements propriétaires occupants par nombre de pièces;1
chargement_filocom;nb_res_principales_statut_occupation_proprietaire_occupant;nb_lgts_occupation_proprietaire_occupant_6_pieces_ou_plus;nb_lgts_occupation_propr_occupant_par_nb_piece;nombre de logements propriétaires occupants par nombre de pièces;1
chargement_filocom;nb_res_principales_statut_occupation_locatif_prive;nb_lgts_occupation_locatif_prive_1_piece;nb_lgts_occupation_locatif_prive_par_nb_piece;nombre de logements locatifs privés par nombre de pièces;1
chargement_filocom;nb_res_principales_statut_occupation_locatif_prive;nb_lgts_occupation_locatif_prive_2_pieces;nb_lgts_occupation_locatif_prive_par_nb_piece;nombre de logements locatifs privés par nombre de pièces;1
chargement_filocom;nb_res_principales_statut_occupation_locatif_prive;nb_lgts_occupation_locatif_prive_3_pieces;nb_lgts_occupation_locatif_prive_par_nb_piece;nombre de logements locatifs privés par nombre de pièces;1
chargement_filocom;nb_res_principales_statut_occupation_locatif_prive;nb_lgts_occupation_locatif_prive_4_pieces;nb_lgts_occupation_locatif_prive_par_nb_piece;nombre de logements locatifs privés par nombre de pièces;1
chargement_filocom;nb_res_principales_statut_occupation_locatif_prive;nb_lgts_occupation_locatif_prive_5_pieces;nb_lgts_occupation_locatif_prive_par_nb_piece;nombre de logements locatifs privés par nombre de pièces;1
chargement_filocom;nb_res_principales_statut_occupation_locatif_prive;nb_lgts_occupation_locatif_prive_6_pieces_ou_plus;nb_lgts_occupation_locatif_prive_par_nb_piece;nombre de logements locatifs privés par nombre de pièces;1
